…
## What is mean total number of steps taken per day?

Group the data by day. Find the total steps taken on each day (excluding missing values)

```r
steps_per_day <- activity_data %>%
  na.omit() %>%
  group_by(date) %>%
  summarise(total_steps = sum(steps))
steps_per_day
```

```
## # A tibble: 53 x 2
##    date       total_steps
##    <date>           <dbl>
##  1 2012-10-02         126
##  2 2012-10-03       11352
##  3 2012-10-04       12116
##  4 2012-10-05       13294
##  5 2012-10-06       15420
##  6 2012-10-07       11015
##  7 2012-10-09       12811
##  8 2012-10-10        9900
##  9 2012-10-11       10304
## 10 2012-10-12       17382
## # ... with 43 more rows
```
…
## What is the average daily activity pattern?

Find the average number of steps taken at each interval (exluding missing values)

```r
intervals <- activity_data %>%
  na.omit() %>%
  group_by(interval) %>%
  summarise(avg_steps = mean(steps))
intervals
```

```
## # A tibble: 288 x 2
##    interval avg_steps
##       <dbl>     <dbl>
##  1        0    1.72  
##  2        5    0.340 
##  3       10    0.132 
##  4       15    0.151 
##  5       20    0.0755
##  6       25    2.09  
##  7       30    0.528 
##  8       35    0.868 
##  9       40    0     
## 10       45    1.47  
## # ... with 278 more rows
```
…
There are 2304 missing values in the dataset.

### Replace the NA's with the average number of steps for each time interval

Add a column with the average number of steps for each interval

```r
add_avg_steps <- activity_data %>% left_join(intervals, by = "interval")
add_avg_steps
```

```
## # A tibble: 17,568 x 4
##    steps date       interval avg_steps
##    <dbl> <date>        <dbl>     <dbl>
##  1    NA 2012-10-01        0    1.72  
##  2    NA 2012-10-01        5    0.340 
##  3    NA 2012-10-01       10    0.132 
##  4    NA 2012-10-01       15    0.151 
##  5    NA 2012-10-01       20    0.0755
##  6    NA 2012-10-01       25    2.09  
##  7    NA 2012-10-01       30    0.528 
##  8    NA 2012-10-01       35    0.868 
##  9    NA 2012-10-01       40    0     
## 10    NA 2012-10-01       45    1.47  
## # ... with 17,558 more rows
```
…
Select only columns that are needed

```r
activity_data_upd <- replace_nas %>%
  select(new_steps, date, interval) %>%
  rename(steps = new_steps)
activity_data_upd
```

```
## # A tibble: 17,568 x 3
##     steps date       interval
##     <dbl> <date>        <dbl>
##  1 1.72   2012-10-01        0
##  2 0.340  2012-10-01        5
##  3 0.132  2012-10-01       10
##  4 0.151  2012-10-01       15
##  5 0.0755 2012-10-01       20
##  6 2.09   2012-10-01       25
##  7 0.528  2012-10-01       30
##  8 0.868  2012-10-01       35
##  9 0      2012-10-01       40
## 10 1.47   2012-10-01       45
## # ... with 17,558 more rows
```

Group the data by day. Find the total steps taken on each day

```r
steps_per_day_upd <- activity_data_upd %>%
  group_by(date) %>%
  summarise(total_steps = sum(steps))
steps_per_day_upd
```

```
## # A tibble: 61 x 2
##    date       total_steps
##    <date>           <dbl>
##  1 2012-10-01      10766.
##  2 2012-10-02        126 
##  3 2012-10-03      11352 
##  4 2012-10-04      12116 
##  5 2012-10-05      13294 
##  6 2012-10-06      15420 
##  7 2012-10-07      11015 
##  8 2012-10-08      10766.
##  9 2012-10-09      12811 
## 10 2012-10-10       9900 
## # ... with 51 more rows
```
…
## Are there differences in activity patterns between weekdays and weekends?

Add a column that indicates whether a day is a weekday or a weekend

```r
activity_weekday <- activity_data_upd %>%
  mutate(Day = weekdays(as.Date(date))) %>%
  mutate(Day_type = if_else(Day %in% c("Saturday", "Sunday"), "weekend", "weekday")) %>%
  select(-Day)
activity_weekday
```

```
## # A tibble: 17,568 x 4
##     steps date       interval Day_type
##     <dbl> <date>        <dbl> <chr>   
##  1 1.72   2012-10-01        0 weekday 
##  2 0.340  2012-10-01        5 weekday 
##  3 0.132  2012-10-01       10 weekday 
##  4 0.151  2012-10-01       15 weekday 
##  5 0.0755 2012-10-01       20 weekday 
##  6 2.09   2012-10-01       25 weekday 
##  7 0.528  2012-10-01       30 weekday 
##  8 0.868  2012-10-01       35 weekday 
##  9 0      2012-10-01       40 weekday 
## 10 1.47   2012-10-01       45 weekday 
## # ... with 17,558 more rows
```

Convert `Day_type` into a factor

```r
activity_weekday$Day_type <- as.factor(activity_weekday$Day_type)
activity_weekday
```

```
## # A tibble: 17,568 x 4
##     steps date       interval Day_type
##     <dbl> <date>        <dbl> <fct>   
##  1 1.72   2012-10-01        0 weekday 
##  2 0.340  2012-10-01        5 weekday 
##  3 0.132  2012-10-01       10 weekday 
##  4 0.151  2012-10-01       15 weekday 
##  5 0.0755 2012-10-01       20 weekday 
##  6 2.09   2012-10-01       25 weekday 
##  7 0.528  2012-10-01       30 weekday 
##  8 0.868  2012-10-01       35 weekday 
##  9 0      2012-10-01       40 weekday 
## 10 1.47   2012-10-01       45 weekday 
## # ... with 17,558 more rows
```

Find the average number of steps taken at each interval

```r
intervals_weekday <- activity_weekday %>%
  group_by(interval, Day_type) %>%
  summarise(avg_steps = mean(steps))
intervals_weekday
```

```
## # A tibble: 576 x 3
## # Groups:   interval [288]
##    interval Day_type avg_steps
##       <dbl> <fct>        <dbl>
##  1        0 weekday    2.25   
##  2        0 weekend    0.215  
##  3        5 weekday    0.445  
##  4        5 weekend    0.0425 
##  5       10 weekday    0.173  
##  6       10 weekend    0.0165 
##  7       15 weekday    0.198  
##  8       15 weekend    0.0189 
##  9       20 weekday    0.0990 
## 10       20 weekend    0.00943
## # ... with 566 more rows
```
…
